<svg width="40" height="40" viewBox="0 0 40 40" fill="none" xmlns="http://www.w3.org/2000/svg">
<g id="Group 1">
<g id="white">
<path id="Vector" d="M26.6552 19.9987V20.129C23.0511 20.1725 20.1361 23.0816 20.0833 26.6834H20.0093C19.9553 23.0534 16.9957 20.1279 13.354 20.1279H13.3446V19.9999H13.354C17.0297 19.9999 20.0105 17.0203 20.0105 13.3446V13.3164H20.0481V13.3446C20.0481 17.0039 23.0018 19.9741 26.6552 19.9987Z" fill="white"/>
<path id="Vector_2" d="M16.7505 38.8821V39.9974H3.43397V39.9997H0.0294189V23.3608H3.43397V38.8821H16.7505Z" fill="white"/>
<path id="Vector_3" d="M34.966 26.613H31.3337L20.0283 6.43695L20.0177 6.45574L18.8472 4.37074L10.1057 19.9577H8.80261L18.2086 3.23316V3.23198L19.7571 0.481331L20.0283 0L20.1691 0.250059L20.6669 1.13642L34.966 26.613Z" fill="white"/>
<g id="S line">
<path id="Vector_4" d="M16.6671 0.0869141H10.3252V1.2022H16.6671V0.0869141Z" fill="white"/>
<path id="Vector_5" d="M29.9495 38.8506H23.3036V39.9659H29.9495V38.8506Z" fill="white"/>
<path id="Vector_6" d="M39.9425 0.0234375H23.3036V1.13872H39.9425V0.0234375Z" fill="white"/>
<path id="Vector_7" d="M10.3252 1.2022V0.0869141C4.62786 0.0869141 0.00939941 4.70537 0.00939941 10.4027C0.00939941 14.7805 2.73657 18.522 6.58489 20.02V18.8096C3.37052 17.3727 1.12468 14.1454 1.12468 10.4027C1.12468 5.32993 5.25242 1.2022 10.3252 1.2022Z" fill="white"/>
<path id="Vector_8" d="M33.4633 20.0526C33.4562 20.0503 33.4492 20.0468 33.4421 20.0444V21.2536C34.9718 21.9393 36.2808 23.0275 37.2435 24.4175C38.3118 25.959 38.8753 27.7681 38.8753 29.65C38.8753 33.3821 36.6424 36.6023 33.4421 38.044C32.2916 38.5629 31.0155 38.8517 29.6748 38.8517V39.9669C35.371 39.9669 39.9906 35.3473 39.9906 29.65C39.9906 25.291 37.2857 21.5624 33.4633 20.0526Z" fill="white"/>
</g>
</g>
</g>
</svg>
