<svg width="24" height="24" viewBox="0 0 24 24" fill="none" xmlns="http://www.w3.org/2000/svg">
<path fill-rule="evenodd" clip-rule="evenodd" d="M5.34889 11.1006C4.84502 11.1006 4.43408 11.5017 4.43408 11.9996C4.43408 12.4974 4.84502 12.8986 5.34889 12.8986H23.0852C23.589 12.8986 24 12.4974 24 11.9996C24 11.5017 23.589 11.1006 23.0852 11.1006H5.34889Z" fill="#F6D9BF" fill-opacity="0.2"/>
<path fill-rule="evenodd" clip-rule="evenodd" d="M0.914804 2.40039C0.410938 2.40039 0 2.80153 0 3.29938C0 3.79723 0.410938 4.19837 0.914804 4.19837H23.0851C23.589 4.19837 24 3.79724 24 3.29938C24 2.80154 23.589 2.40039 23.0851 2.40039H0.914804ZM0.914804 19.8024C0.410938 19.8024 0 20.2036 0 20.7014C0 21.1992 0.410938 21.6004 0.914804 21.6004H23.0851C23.589 21.6004 24 21.1992 24 20.7014C24 20.2036 23.589 19.8024 23.0851 19.8024H0.914804Z" fill="#F6D9BF"/>
</svg>
