<svg width="24" height="25" viewBox="0 0 24 25" fill="none" xmlns="http://www.w3.org/2000/svg">
<rect y="0.467773" width="24" height="24" rx="2.4" fill="white" fill-opacity="0.16"/>
<path d="M22.5 12.4676C22.5 6.83431 17.799 2.26758 12 2.26758C6.20105 2.26758 1.5 6.83423 1.5 12.4676C1.5 17.5587 5.33972 21.7785 10.3594 22.5437V15.416H7.69336V12.4676H10.3594V10.2204C10.3594 7.66402 11.927 6.25195 14.3253 6.25195C15.4742 6.25195 16.6758 6.45117 16.6758 6.45117V8.96133H15.3518C14.0473 8.96133 13.6406 9.7476 13.6406 10.5543V12.4676H16.5527L16.0872 15.416H13.6406V22.5437C18.6603 21.7785 22.5 17.5587 22.5 12.4676Z" fill="#1877F2"/>
<path d="M16.0872 15.416L16.5527 12.4676H13.6406V10.5543C13.6406 9.74752 14.0474 8.96133 15.3518 8.96133H16.6758V6.45117C16.6758 6.45117 15.4742 6.25195 14.3253 6.25195C11.927 6.25195 10.3594 7.66402 10.3594 10.2204V12.4676H7.69336V15.416H10.3594V22.5437C10.9021 22.6263 11.4506 22.6677 12 22.6676C12.5494 22.6677 13.0979 22.6263 13.6406 22.5437V15.416H16.0872Z" fill="white"/>
</svg>
