<svg width="20" height="20" viewBox="0 0 20 20" fill="none" xmlns="http://www.w3.org/2000/svg">
<path d="M1.6665 9.99984C1.6665 14.6023 5.39734 18.3332 9.99984 18.3332C14.6023 18.3332 18.3332 14.6023 18.3332 9.99984C18.3332 5.39734 14.6023 1.6665 9.99984 1.6665C5.39734 1.6665 1.6665 5.39734 1.6665 9.99984ZM1.6665 9.99984V18.3332" stroke="#DEAF96" stroke-opacity="0.85" stroke-width="1.5" stroke-linecap="round" stroke-linejoin="round"/>
</svg>
