<svg width="14" height="14" viewBox="0 0 14 14" fill="none" xmlns="http://www.w3.org/2000/svg">
<path id="Vector" d="M13.6893 6.68231V6.81262C10.0852 6.85606 7.17016 9.7652 7.11733 13.367H7.04337C6.98937 9.73703 4.02975 6.81145 0.388052 6.81145H0.378662V6.68349H0.388052C4.0638 6.68349 7.04455 3.70392 7.04455 0.0281745V0H7.08211V0.0281745C7.08211 3.68748 10.0359 6.65766 13.6893 6.68231Z" fill="url(#paint0_linear_10_2686)"/>
<defs>
<linearGradient id="paint0_linear_10_2686" x1="7.03398" y1="0" x2="7.03398" y2="13.367" gradientUnits="userSpaceOnUse">
<stop stop-color="#D5A185"/>
<stop offset="1" stop-color="#F6D9BF"/>
</linearGradient>
</defs>
</svg>
