<svg width="40" height="40" viewBox="0 0 40 40" fill="none" xmlns="http://www.w3.org/2000/svg">
<g id="remix-icons/line/system/arrow-drop-right-line">
<g clip-path="url(#clip0_242_397)">
<rect width="40" height="40" rx="20" fill="white" fill-opacity="0.16"/>
<g id="Group">
<path id="Vector" d="M20.2868 19.9999L15.5718 15.2866L17.9284 12.9282L25.0001 19.9999L17.9284 27.0716L15.5718 24.7132L20.2868 19.9999Z" fill="#F6F8F1"/>
</g>
</g>
</g>
<defs>
<clipPath id="clip0_242_397">
<rect width="40" height="40" rx="20" fill="white"/>
</clipPath>
</defs>
</svg>
